{
    "slug": "default",
    "name": "Default Storefront theme",
    "description": "This is good place to start with",
    "author": "",
	"email": "",
	"uri": "",
	"license": "Copyright reserved to the Author",
    "version": "1.1.0"
}